…
    id = str_remove_all(id, "_"),
    arm = str_replace(arm,"con","control"),
    arm = str_replace(arm,"exp","experiment")
  )%>%
  pivot_longer(
    week_1:week_8,
    names_prefix = "week_",
    names_to = "week",
    values_to = "observations"
  )%>%
  mutate(week = as.numeric(week))
lda_data_tidy
```

    ## # A tibble: 160 x 4
    ##    arm     id     week observations
    ##    <chr>   <chr> <dbl>        <dbl>
    ##  1 control 01        1         0.2 
    ##  2 control 01        2        -1.31
    ##  3 control 01        3         0.66
    ##  4 control 01        4         1.96
    ##  5 control 01        5         0.23
    ##  6 control 01        6         1.09
    ##  7 control 01        7         0.05
    ##  8 control 01        8         1.94
    ##  9 control 02        1         1.13
    ## 10 control 02        2        -0.88
    ## # ... with 150 more rows
…
